…
\#Como quedo el tarifario 2017

``` r
data$dif_precios <- (data$factura - data$costo_total)
tarifario <- data %>% 
  select(cod, vehiculo, factura) %>% 
  group_by(vehiculo,cod) %>% 
  summarise(costo_promedio = mean(factura)) %>% 
  arrange(desc(costo_promedio), .by_group = TRUE)
print(tarifario)
```

    ## # A tibble: 21 x 3
    ## # Groups:   vehiculo [3]
    ##    vehiculo cod                      costo_promedio
    ##    <chr>    <chr>                             <dbl>
    ##  1 Camion   CAMBIO_PUENTES                     197.
    ##  2 Camion   REVISION_TRANSFORMADOR             191.
    ##  3 Camion   VERIFICACION_INDICADORES           191.
    ##  4 Camion   VISITA                             188.
    ##  5 Camion   CAMBIO_CORRECTIVO                  187.
    ##  6 Camion   VERIFICACION_MEDIDORES             186.
    ##  7 Camion   REVISION                           185.
    ##  8 Camion   CAMBIO_FUSIBLE                     184.
    ##  9 Camion   OTRO                               178.
    ## 10 Camion   VISITA_POR_CORRECCION              177.
    ## # ... with 11 more rows
…
    ## [1] 0

\#deberiamos abrir más centros de distribución

``` r
data %>% 
  mutate(month = month(Fecha)) %>% 
  select(origen, month) %>% 
  group_by(origen, month) %>% 
  summarise(pedidos = n())
```

    ## # A tibble: 48 x 3
    ## # Groups:   origen [4]
    ##    origen month pedidos
    ##     <dbl> <dbl>   <int>
    ##  1 150224     1    8625
    ##  2 150224     2    7938
    ##  3 150224     3    9037
    ##  4 150224     4    8659
    ##  5 150224     5    8995
    ##  6 150224     6    8494
    ##  7 150224     7    8939
    ##  8 150224     8    8963
    ##  9 150224     9    8622
    ## 10 150224    10    9048
    ## # ... with 38 more rows
…
