…
``` r
quijote_words <- tidytext::unnest_tokens(quijote_frame, input = txt, output = words, token = "words")
quijote_count <- dplyr::count(quijote_words,words,sort = TRUE)
spanish_stopwords <- data_frame(words = quanteda::stopwords(language = "es"))
quijote_words_clean <- dplyr::anti_join(quijote_words, spanish_stopwords)
```

    ## Joining, by = "words"

``` r
quijote_clean_count <- count(quijote_words_clean, words, sort = TRUE)
quijote_clean_count
```

    ## # A tibble: 7,128 x 2
    ##    words       n
    ##    <chr>   <int>
    ##  1 s         469
    ##  2 n         429
    ##  3 don       370
    ##  4 quijote   362
    ##  5 ã         315
    ##  6 mã        309
    ##  7 sancho    299
    ##  8 dijo      272
    ##  9 l         268
    ## 10 si        264
    ## # ... with 7,118 more rows
…
